<?xml version="1.0" encoding="UTF-8" standalone="no"?>
<!-- Created with Inkscape (http://www.inkscape.org/) -->

<svg
   xmlns:dc="http://purl.org/dc/elements/1.1/"
   xmlns:cc="http://creativecommons.org/ns#"
   xmlns:rdf="http://www.w3.org/1999/02/22-rdf-syntax-ns#"
   xmlns:svg="http://www.w3.org/2000/svg"
   xmlns="http://www.w3.org/2000/svg"
   xmlns:xlink="http://www.w3.org/1999/xlink"
   xmlns:sodipodi="http://sodipodi.sourceforge.net/DTD/sodipodi-0.dtd"
   xmlns:inkscape="http://www.inkscape.org/namespaces/inkscape"
   width="91.428574"
   height="128"
   viewBox="0 0 91.428574 128"
   id="svg2"
   version="1.1"
   inkscape:version="0.91 r"
   sodipodi:docname="iHub_Card-Template_Spades1@128px.svg"
   inkscape:export-filename="/home/alin/Design/Brands/iHub/Playing Cards/png/Ihub_Card-Back@2048px.png"
   inkscape:export-xdpi="1440"
   inkscape:export-ydpi="1440">
  <defs
     id="defs4">
    <linearGradient
       id="linearGradient3882"
       inkscape:collect="always">
      <stop
         id="stop3884"
         offset="0"
         style="stop-color:#35514f;stop-opacity:1;" />
      <stop
         id="stop3886"
         offset="1"
         style="stop-color:#466b69;stop-opacity:1" />
    </linearGradient>
    <linearGradient
       id="linearGradient3824"
       inkscape:collect="always">
      <stop
         id="stop3826"
         offset="0"
         style="stop-color:#fcff5d;stop-opacity:1" />
      <stop
         id="stop3828"
         offset="1"
         style="stop-color:#ff8846;stop-opacity:1" />
    </linearGradient>
    <linearGradient
       id="linearGradient3816"
       inkscape:collect="always">
      <stop
         id="stop3818"
         offset="0"
         style="stop-color:#55bd7a;stop-opacity:1" />
      <stop
         id="stop3820"
         offset="1"
         style="stop-color:#5efa96;stop-opacity:1" />
    </linearGradient>
    <linearGradient
       inkscape:collect="always"
       id="linearGradient3793">
      <stop
         style="stop-color:#ff580a;stop-opacity:1"
         offset="0"
         id="stop3795" />
      <stop
         style="stop-color:#fe705a;stop-opacity:1"
         offset="1"
         id="stop3797" />
    </linearGradient>
    <linearGradient
       gradientUnits="userSpaceOnUse"
       y2="975.67242"
       x2="160.22067"
       y1="1043.3527"
       x1="126.12076"
       id="linearGradient3814"
       xlink:href="#linearGradient3793"
       inkscape:collect="always" />
    <linearGradient
       y2="493.79523"
       x2="542.74628"
       y1="510.22379"
       x1="501.09921"
       gradientTransform="matrix(0.35125161,0,0,0.35125161,-384.19399,571.41704)"
       gradientUnits="userSpaceOnUse"
       id="linearGradient3911"
       xlink:href="#linearGradient3816"
       inkscape:collect="always" />
    <linearGradient
       y2="148.96722"
       x2="-55.541393"
       y1="5.7780933"
       x1="-118.43305"
       gradientTransform="translate(-125.25892,924.36218)"
       gradientUnits="userSpaceOnUse"
       id="linearGradient3917"
       xlink:href="#linearGradient3882"
       inkscape:collect="always" />
    <linearGradient
       y2="493.79523"
       x2="542.74628"
       y1="510.22379"
       x1="501.09921"
       gradientTransform="translate(-746.9832,476.18779)"
       gradientUnits="userSpaceOnUse"
       id="linearGradient3920"
       xlink:href="#linearGradient3816"
       inkscape:collect="always" />
    <radialGradient
       r="51.136089"
       fy="525.16302"
       fx="527.28387"
       cy="525.16302"
       cx="527.28387"
       gradientTransform="matrix(1.2821066,0,0,1.2821066,-895.73346,328.03583)"
       gradientUnits="userSpaceOnUse"
       id="radialGradient3923"
       xlink:href="#linearGradient3824"
       inkscape:collect="always" />
    <radialGradient
       gradientUnits="userSpaceOnUse"
       gradientTransform="matrix(0.71383847,0,0,0.69402167,163.3138,75.67214)"
       r="77.321426"
       fy="988.36218"
       fx="63.900429"
       cy="988.36218"
       cx="63.900429"
       id="radialGradient3933"
       xlink:href="#linearGradient3824"
       inkscape:collect="always" />
    <clipPath
       clipPathUnits="userSpaceOnUse"
       id="clipPath4605">
      <circle
         style="opacity:1;fill:#fdc752;fill-opacity:1;stroke:none;stroke-width:4;stroke-linecap:round;stroke-linejoin:round;stroke-miterlimit:4;stroke-dasharray:none;stroke-opacity:1"
         id="circle4607"
         cx="-121.66422"
         cy="1074.5074"
         r="35.631554" />
    </clipPath>
  </defs>
  <sodipodi:namedview
     id="base"
     pagecolor="#ffffff"
     bordercolor="#666666"
     borderopacity="1.0"
     inkscape:pageopacity="0.0"
     inkscape:pageshadow="2"
     inkscape:zoom="5.12"
     inkscape:cx="89.146374"
     inkscape:cy="44.424235"
     inkscape:document-units="px"
     inkscape:current-layer="layer1"
     showgrid="false"
     showborder="true"
     units="px"
     fit-margin-top="0"
     fit-margin-left="0"
     fit-margin-right="0"
     fit-margin-bottom="0"
     borderlayer="true"
     inkscape:window-width="1366"
     inkscape:window-height="747"
     inkscape:window-x="900"
     inkscape:window-y="693"
     inkscape:window-maximized="1" />
  <metadata
     id="metadata7">
    <rdf:RDF>
      <cc:Work
         rdf:about="">
        <dc:format>image/svg+xml</dc:format>
        <dc:type
           rdf:resource="http://purl.org/dc/dcmitype/StillImage" />
        <dc:title></dc:title>
      </cc:Work>
    </rdf:RDF>
  </metadata>
  <g
     inkscape:label="Layer 1"
     inkscape:groupmode="layer"
     id="layer1"
     transform="translate(360.15626,-697.40899)">
    <path
       inkscape:connector-curvature="0"
       id="rect4640"
       d="m -362.36524,694.20786 0,134.79297 97.22656,0 0,-134.79297 -97.22656,0 z m 47.92382,28.79101 a 26.516504,26.516504 0 0 1 2.64649,0.13086 26.516504,26.516504 0 0 1 2.62109,0.39649 26.516504,26.516504 0 0 1 2.56836,0.65625 26.516504,26.516504 0 0 1 2.49024,0.9082 26.516504,26.516504 0 0 1 2.38671,1.1543 26.516504,26.516504 0 0 1 2.25977,1.38476 26.516504,26.516504 0 0 1 2.10938,1.60352 26.516504,26.516504 0 0 1 1.93945,1.80664 26.516504,26.516504 0 0 1 1.75,1.99219 26.516504,26.516504 0 0 1 1.54101,2.15625 26.516504,26.516504 0 0 1 1.31836,2.29883 26.516504,26.516504 0 0 1 1.08203,2.41796 26.516504,26.516504 0 0 1 0.83594,2.51563 26.516504,26.516504 0 0 1 0.58203,2.58594 26.516504,26.516504 0 0 1 0.31836,2.63281 26.516504,26.516504 0 0 1 0.0664,1.875 26.516504,26.516504 0 0 1 -0.13281,2.64648 26.516504,26.516504 0 0 1 -0.39453,2.6211 26.516504,26.516504 0 0 1 -0.65625,2.56836 26.516504,26.516504 0 0 1 -0.91016,2.49023 26.516504,26.516504 0 0 1 -1.15234,2.38672 26.516504,26.516504 0 0 1 -1.38477,2.25977 26.516504,26.516504 0 0 1 -1.60351,2.10937 26.516504,26.516504 0 0 1 -1.80664,1.93945 26.516504,26.516504 0 0 1 -1.99219,1.75 26.516504,26.516504 0 0 1 -2.15625,1.54102 26.516504,26.516504 0 0 1 -2.29883,1.31836 26.516504,26.516504 0 0 1 -2.41992,1.08398 26.516504,26.516504 0 0 1 -2.51563,0.83594 26.516504,26.516504 0 0 1 -2.58593,0.58008 26.516504,26.516504 0 0 1 -2.63086,0.31836 26.516504,26.516504 0 0 1 -1.875,0.0664 26.516504,26.516504 0 0 1 -2.64844,-0.13086 26.516504,26.516504 0 0 1 -2.6211,-0.39649 26.516504,26.516504 0 0 1 -2.5664,-0.65625 26.516504,26.516504 0 0 1 -2.49024,-0.9082 26.516504,26.516504 0 0 1 -2.38672,-1.1543 26.516504,26.516504 0 0 1 -2.25976,-1.38477 26.516504,26.516504 0 0 1 -2.10938,-1.60351 26.516504,26.516504 0 0 1 -1.93945,-1.80664 26.516504,26.516504 0 0 1 -1.75,-1.99219 26.516504,26.516504 0 0 1 -1.54102,-2.15625 26.516504,26.516504 0 0 1 -1.32031,-2.29883 26.516504,26.516504 0 0 1 -1.08203,-2.41797 26.516504,26.516504 0 0 1 -0.83594,-2.51562 26.516504,26.516504 0 0 1 -0.58008,-2.58594 26.516504,26.516504 0 0 1 -0.32031,-2.63281 26.516504,26.516504 0 0 1 -0.0664,-1.875 26.516504,26.516504 0 0 1 0.13281,-2.64649 26.516504,26.516504 0 0 1 0.39649,-2.62109 26.516504,26.516504 0 0 1 0.65625,-2.56836 26.516504,26.516504 0 0 1 0.9082,-2.49023 26.516504,26.516504 0 0 1 1.15235,-2.38672 26.516504,26.516504 0 0 1 1.38671,-2.25977 26.516504,26.516504 0 0 1 1.60352,-2.10937 26.516504,26.516504 0 0 1 1.80664,-1.93946 26.516504,26.516504 0 0 1 1.99024,-1.75 26.516504,26.516504 0 0 1 2.15625,-1.54101 26.516504,26.516504 0 0 1 2.29882,-1.31836 26.516504,26.516504 0 0 1 2.41993,-1.08398 26.516504,26.516504 0 0 1 2.51562,-0.83594 26.516504,26.516504 0 0 1 2.58594,-0.58008 26.516504,26.516504 0 0 1 2.63086,-0.31836 26.516504,26.516504 0 0 1 1.87695,-0.0664 z"
       style="opacity:1;fill:#ededed;fill-opacity:1;stroke:none;stroke-width:4;stroke-linecap:round;stroke-linejoin:round;stroke-miterlimit:4;stroke-dasharray:none;stroke-opacity:1" />
    <rect
       transform="scale(-1,1)"
       style="fill:url(#radialGradient3933);fill-opacity:1;fill-rule:nonzero;stroke:none"
       id="rect3925"
       width="91.428574"
       height="128"
       x="163.2141"
       y="697.409" />
    <path
       id="path3897"
       sodipodi:nodetypes="cscsc"
       inkscape:connector-curvature="0"
       d="m -199.28425,764.98553 c 0,0 12.03349,0.1 12.12605,-13.7147 0.0629,-9.3846 -12.12605,-21.2608 -12.12605,-21.2608 0,0 -11.52716,11.8611 -11.52716,21.2608 0,13.552 11.52716,13.7147 11.52716,13.7147 z"
       style="fill:url(#linearGradient3911);fill-opacity:1;stroke:none" />
    <path
       style="color:#000000;font-style:normal;font-variant:normal;font-weight:normal;font-stretch:normal;font-size:medium;line-height:normal;font-family:Sans;-inkscape-font-specification:Sans;text-indent:0;text-align:start;text-decoration:none;text-decoration-line:none;letter-spacing:normal;word-spacing:normal;text-transform:none;direction:ltr;block-progression:tb;writing-mode:lr-tb;baseline-shift:baseline;text-anchor:start;display:inline;overflow:visible;visibility:visible;fill:#3b5a58;fill-opacity:1;stroke:none;stroke-width:6.16807938;marker:none;enable-background:accumulate"
       d="m -331.64739,705.9121 c -0.0601,0.008 -0.11496,0.0375 -0.15674,0.0814 0,0 -0.70103,0.71891 -1.39868,1.72121 -0.69764,1.0023 -1.41373,2.28671 -1.41373,3.51174 0,1.68437 0.74812,2.61113 1.49815,3.06261 0.48354,0.29107 0.96213,0.39823 1.24492,0.43709 l 0,0.99774 0,0.32039 0,0.18688 c -0.003,0.14064 0.12462,0.272 0.26527,0.27431 0.14326,0.002 0.27148,-0.13109 0.26827,-0.27431 l 0,-0.18085 0,-0.33246 0,-0.98871 c 0.29599,-0.0349 0.79051,-0.13308 1.28714,-0.41295 0.78407,-0.44186 1.57405,-1.36936 1.58556,-3.08672 0.008,-1.23046 -0.75021,-2.51793 -1.48609,-3.52079 -0.73587,-1.00286 -1.47402,-1.72121 -1.47402,-1.72121 -0.0568,-0.0561 -0.14076,-0.0845 -0.22005,-0.0754 z"
       id="path3899"
       inkscape:connector-curvature="0"
       sodipodi:nodetypes="ccsscccccccccccsscc" />
    <circle
       r="8.7007284"
       cy="711.13812"
       cx="-346.75897"
       id="path4584"
       style="opacity:1;fill:#fdc752;fill-opacity:1;stroke:none;stroke-width:4;stroke-linecap:round;stroke-linejoin:round;stroke-miterlimit:4;stroke-dasharray:none;stroke-opacity:1" />
    <text
       sodipodi:linespacing="125%"
       id="text4580"
       y="715.25714"
       x="-351.15146"
       style="font-style:normal;font-weight:normal;font-size:13.42991257px;line-height:125%;font-family:Sans;letter-spacing:0px;word-spacing:0px;fill:#375553;fill-opacity:1;stroke:none;stroke-width:1px;stroke-linecap:butt;stroke-linejoin:miter;stroke-opacity:1"
       xml:space="preserve"><tspan
         style="font-style:normal;font-variant:normal;font-weight:normal;font-stretch:normal;font-family:Quicksand;-inkscape-font-specification:Quicksand;fill:#375553;fill-opacity:1"
         y="715.25714"
         x="-351.15146"
         id="tspan4582"
         sodipodi:role="line">A</tspan></text>
    <circle
       transform="scale(-1,-1)"
       style="opacity:1;fill:#fdc752;fill-opacity:1;stroke:none;stroke-width:4;stroke-linecap:round;stroke-linejoin:round;stroke-miterlimit:4;stroke-dasharray:none;stroke-opacity:1"
       id="circle4586"
       cx="281.02011"
       cy="-811.40363"
       r="8.7007284" />
    <text
       transform="scale(-1,-1)"
       xml:space="preserve"
       style="font-style:normal;font-weight:normal;font-size:13.42991257px;line-height:125%;font-family:Sans;letter-spacing:0px;word-spacing:0px;fill:#375553;fill-opacity:1;stroke:none;stroke-width:1px;stroke-linecap:butt;stroke-linejoin:miter;stroke-opacity:1"
       x="276.62762"
       y="-807.28461"
       id="text4588"
       sodipodi:linespacing="125%"><tspan
         sodipodi:role="line"
         id="tspan4590"
         x="276.62762"
         y="-807.28461"
         style="font-style:normal;font-variant:normal;font-weight:normal;font-stretch:normal;font-family:Quicksand;-inkscape-font-specification:Quicksand;fill:#375553;fill-opacity:1">A</tspan></text>
    <text
       sodipodi:linespacing="125%"
       id="text4628"
       y="787.92413"
       x="-345.14905"
       style="font-style:normal;font-weight:normal;font-size:10.52825832px;line-height:125%;font-family:Sans;letter-spacing:0px;word-spacing:0px;fill:#3b5a58;fill-opacity:1;stroke:none;stroke-width:1px;stroke-linecap:butt;stroke-linejoin:miter;stroke-opacity:1"
       xml:space="preserve"><tspan
         style="font-style:normal;font-variant:normal;font-weight:normal;font-stretch:normal;font-family:Quicksand;-inkscape-font-specification:Quicksand;fill:#3b5a58;fill-opacity:1"
         y="787.92413"
         x="-345.14905"
         id="tspan4630"
         sodipodi:role="line">John Smith</tspan></text>
    <text
       xml:space="preserve"
       style="font-style:normal;font-weight:normal;font-size:6.96916389px;line-height:125%;font-family:Sans;text-align:center;letter-spacing:0px;word-spacing:0px;text-anchor:middle;fill:#3b5a58;fill-opacity:1;stroke:none;stroke-width:1px;stroke-linecap:butt;stroke-linejoin:miter;stroke-opacity:1"
       x="-314.71005"
       y="796.84833"
       id="text4632"
       sodipodi:linespacing="125%"><tspan
         id="tspan4636"
         sodipodi:role="line"
         x="-314.71005"
         y="796.84833"
         style="font-style:normal;font-variant:normal;font-weight:normal;font-stretch:normal;font-family:Quicksand;-inkscape-font-specification:Quicksand;text-align:center;text-anchor:middle;fill:#3b5a58;fill-opacity:1">Something.com</tspan></text>
    <path
       sodipodi:nodetypes="ccsscccccccccccsscc"
       inkscape:connector-curvature="0"
       id="path4290"
       d="m -296.10051,816.6991 c -0.0601,-0.008 -0.11496,-0.0375 -0.15674,-0.0814 0,0 -0.70103,-0.71891 -1.39868,-1.72121 -0.69764,-1.0023 -1.41373,-2.28671 -1.41373,-3.51174 0,-1.68437 0.74812,-2.61113 1.49815,-3.06261 0.48354,-0.29107 0.96213,-0.39823 1.24492,-0.43709 l 0,-0.99774 0,-0.32039 0,-0.18688 c -0.003,-0.14064 0.12462,-0.272 0.26527,-0.27431 0.14326,-0.002 0.27148,0.13109 0.26827,0.27431 l 0,0.18085 0,0.33246 0,0.98871 c 0.29599,0.0349 0.79051,0.13308 1.28714,0.41295 0.78407,0.44186 1.57405,1.36936 1.58556,3.08672 0.008,1.23046 -0.75021,2.51793 -1.48609,3.52079 -0.73587,1.00286 -1.47402,1.72121 -1.47402,1.72121 -0.0568,0.0561 -0.14076,0.0845 -0.22005,0.0754 z"
       style="color:#000000;font-style:normal;font-variant:normal;font-weight:normal;font-stretch:normal;font-size:medium;line-height:normal;font-family:Sans;-inkscape-font-specification:Sans;text-indent:0;text-align:start;text-decoration:none;text-decoration-line:none;letter-spacing:normal;word-spacing:normal;text-transform:none;direction:ltr;block-progression:tb;writing-mode:lr-tb;baseline-shift:baseline;text-anchor:start;display:inline;overflow:visible;visibility:visible;fill:#3b5a58;fill-opacity:1;stroke:none;stroke-width:6.16807938;marker:none;enable-background:accumulate" />
  </g>
</svg>
